---
http_interactions:
- request:
    method: get
    uri: http://localhost:3000/api/v3/people.json?api_key=iJHyFkMUBSfjUovt29&per_page=7
    body:
      encoding: US-ASCII
      string: ''
    headers:
      Accept:
      - application/json
      Accept-Encoding:
      - gzip;q=1.0,deflate;q=0.6,identity;q=0.3
      User-Agent:
      - Ruby
  response:
    status:
      code: 200
      message: OK
    headers:
      Date:
      - Mon, 19 May 2014 16:27:50 GMT
      Status:
      - 200 OK
      Connection:
      - close
      Content-Type:
      - application/json; charset=utf-8
      X-Runtime:
      - '1432'
      Etag:
      - '"90d2a8a1f75595aaf095515d8a9686b7"'
      Cache-Control:
      - private, max-age=0, must-revalidate
      Content-Length:
      - '7901'
      Set-Cookie:
      - is_legacy_user=; domain=pipelinecrm.com; path=/; expires=Thu, 01-Jan-1970
        00:00:00 GMT
    body:
      encoding: US-ASCII
      string: '{"entries":[{"company_id":1,"created_at":"2014/05/19 08:54:59 -0400","email":null,"email2":null,"facebook_url":null,"fax":null,"first_name":"Leonard","home_address_1":null,"home_address_2":null,"home_city":null,"home_country":null,"home_email":null,"home_phone":null,"home_postal_code":null,"home_state":null,"id":1,"instant_message":null,"last_name":"Jakubowski","linked_in_url":null,"mobile":null,"phone":null,"position":null,"twitter":null,"type":"Contact","updated_at":"2014/05/19
        12:13:24 -0400","user_id":2,"viewed_at":null,"website":null,"work_address_1":null,"work_address_2":null,"work_city":null,"work_country":null,"work_postal_code":null,"work_state":null,"company_name":"Roob
        Group","full_name":"Leonard Jakubowski","predefined_contacts_tag_ids":[],"deal_ids":[2],"image_thumb_url":"/images/thumb/missing.png","image_mobile_url":"/images/mobile/missing.png","predefined_contacts_tags":[],"deals":[{"id":2,"name":"reinvent
        rich infrastructures"}],"lead_source":{"id":2,"name":"Cold Call"},"lead_status":{"hex_color":"C73408","id":2,"name":"Hot"},"company":{"id":1,"name":"Roob
        Group"},"user":{"id":2,"first_name":"Maggie","last_name":"Zemlak"},"custom_fields":{}},{"company_id":2,"created_at":"2014/05/19
        08:55:01 -0400","email":null,"email2":null,"facebook_url":null,"fax":null,"first_name":"Kendrick","home_address_1":null,"home_address_2":null,"home_city":null,"home_country":null,"home_email":null,"home_phone":null,"home_postal_code":null,"home_state":null,"id":2,"instant_message":null,"last_name":"Rolfson","linked_in_url":null,"mobile":null,"phone":null,"position":null,"twitter":null,"type":"Contact","updated_at":"2014/05/19
        11:41:43 -0400","user_id":2,"viewed_at":null,"website":null,"work_address_1":null,"work_address_2":null,"work_city":null,"work_country":null,"work_postal_code":null,"work_state":null,"company_name":"Baumbach,
        Mitchell and Pfannerstill","full_name":"Kendrick Rolfson","predefined_contacts_tag_ids":[],"deal_ids":[],"image_thumb_url":"/images/thumb/missing.png","image_mobile_url":"/images/mobile/missing.png","predefined_contacts_tags":[],"deals":[],"lead_source":{"id":2,"name":"Cold
        Call"},"lead_status":{"hex_color":"C73408","id":2,"name":"Hot"},"company":{"id":2,"name":"Baumbach,
        Mitchell and Pfannerstill"},"user":{"id":2,"first_name":"Maggie","last_name":"Zemlak"},"custom_fields":{}},{"company_id":3,"created_at":"2014/05/19
        08:55:01 -0400","email":null,"email2":null,"facebook_url":null,"fax":null,"first_name":"Dorcas","home_address_1":null,"home_address_2":null,"home_city":null,"home_country":null,"home_email":null,"home_phone":null,"home_postal_code":null,"home_state":null,"id":3,"instant_message":null,"last_name":"McCullough","linked_in_url":null,"mobile":null,"phone":null,"position":null,"twitter":null,"type":"Contact","updated_at":"2014/05/19
        11:41:43 -0400","user_id":2,"viewed_at":null,"website":null,"work_address_1":null,"work_address_2":null,"work_city":null,"work_country":null,"work_postal_code":null,"work_state":null,"company_name":"Walker
        Inc","full_name":"Dorcas McCullough","predefined_contacts_tag_ids":[],"deal_ids":[],"image_thumb_url":"/images/thumb/missing.png","image_mobile_url":"/images/mobile/missing.png","predefined_contacts_tags":[],"deals":[],"lead_source":{"id":2,"name":"Cold
        Call"},"lead_status":{"hex_color":"C73408","id":2,"name":"Hot"},"company":{"id":3,"name":"Walker
        Inc"},"user":{"id":2,"first_name":"Maggie","last_name":"Zemlak"},"custom_fields":{}},{"company_id":4,"created_at":"2014/05/19
        08:55:03 -0400","email":null,"email2":null,"facebook_url":null,"fax":null,"first_name":"Tamia","home_address_1":null,"home_address_2":null,"home_city":null,"home_country":null,"home_email":null,"home_phone":null,"home_postal_code":null,"home_state":null,"id":4,"instant_message":null,"last_name":"Skiles","linked_in_url":null,"mobile":null,"phone":null,"position":null,"twitter":null,"type":"Contact","updated_at":"2014/05/19
        11:41:43 -0400","user_id":2,"viewed_at":null,"website":null,"work_address_1":null,"work_address_2":null,"work_city":null,"work_country":null,"work_postal_code":null,"work_state":null,"company_name":"Rosenbaum
        Inc","full_name":"Tamia Skiles","predefined_contacts_tag_ids":[],"deal_ids":[],"image_thumb_url":"/images/thumb/missing.png","image_mobile_url":"/images/mobile/missing.png","predefined_contacts_tags":[],"deals":[],"lead_source":{"id":2,"name":"Cold
        Call"},"lead_status":{"hex_color":"C73408","id":2,"name":"Hot"},"company":{"id":4,"name":"Rosenbaum
        Inc"},"user":{"id":2,"first_name":"Maggie","last_name":"Zemlak"},"custom_fields":{}},{"company_id":5,"created_at":"2014/05/19
        08:55:03 -0400","email":null,"email2":null,"facebook_url":null,"fax":null,"first_name":"Katharina","home_address_1":null,"home_address_2":null,"home_city":null,"home_country":null,"home_email":null,"home_phone":null,"home_postal_code":null,"home_state":null,"id":5,"instant_message":null,"last_name":"Zemlak","linked_in_url":null,"mobile":null,"phone":null,"position":null,"twitter":null,"type":"Contact","updated_at":"2014/05/19
        08:55:06 -0400","user_id":2,"viewed_at":null,"website":null,"work_address_1":null,"work_address_2":null,"work_city":null,"work_country":null,"work_postal_code":null,"work_state":null,"company_name":"Hermann-Schowalter","full_name":"Katharina
        Zemlak","predefined_contacts_tag_ids":[],"deal_ids":[],"image_thumb_url":"/images/thumb/missing.png","image_mobile_url":"/images/mobile/missing.png","predefined_contacts_tags":[],"deals":[],"lead_source":{"id":2,"name":"Cold
        Call"},"company":{"id":5,"name":"Hermann-Schowalter"},"user":{"id":2,"first_name":"Maggie","last_name":"Zemlak"},"lead_status":null,"custom_fields":{}},{"company_id":6,"created_at":"2014/05/19
        08:55:06 -0400","email":null,"email2":null,"facebook_url":null,"fax":null,"first_name":"Pete","home_address_1":null,"home_address_2":null,"home_city":null,"home_country":null,"home_email":null,"home_phone":null,"home_postal_code":null,"home_state":null,"id":6,"instant_message":null,"last_name":"Upton","linked_in_url":null,"mobile":null,"phone":null,"position":null,"twitter":null,"type":"Contact","updated_at":"2014/05/19
        08:55:07 -0400","user_id":2,"viewed_at":null,"website":null,"work_address_1":null,"work_address_2":null,"work_city":null,"work_country":null,"work_postal_code":null,"work_state":null,"company_name":"Cormier,
        Rath and Rohan","full_name":"Pete Upton","predefined_contacts_tag_ids":[],"deal_ids":[],"image_thumb_url":"/images/thumb/missing.png","image_mobile_url":"/images/mobile/missing.png","predefined_contacts_tags":[],"deals":[],"lead_source":{"id":2,"name":"Cold
        Call"},"company":{"id":6,"name":"Cormier, Rath and Rohan"},"user":{"id":2,"first_name":"Maggie","last_name":"Zemlak"},"lead_status":null,"custom_fields":{}},{"company_id":7,"created_at":"2014/05/19
        08:55:07 -0400","email":null,"email2":null,"facebook_url":null,"fax":null,"first_name":"Graciela","home_address_1":null,"home_address_2":null,"home_city":null,"home_country":null,"home_email":null,"home_phone":null,"home_postal_code":null,"home_state":null,"id":7,"instant_message":null,"last_name":"Keebler","linked_in_url":null,"mobile":null,"phone":null,"position":null,"twitter":null,"type":"Contact","updated_at":"2014/05/19
        08:55:09 -0400","user_id":2,"viewed_at":null,"website":null,"work_address_1":null,"work_address_2":null,"work_city":null,"work_country":null,"work_postal_code":null,"work_state":null,"company_name":"Nienow
        and Sons","full_name":"Graciela Keebler","predefined_contacts_tag_ids":[],"deal_ids":[],"image_thumb_url":"/images/thumb/missing.png","image_mobile_url":"/images/mobile/missing.png","predefined_contacts_tags":[],"deals":[],"lead_source":{"id":2,"name":"Cold
        Call"},"company":{"id":7,"name":"Nienow and Sons"},"user":{"id":2,"first_name":"Maggie","last_name":"Zemlak"},"lead_status":null,"custom_fields":{}}],"pagination":{"page":1,"page_var":"page","per_page":7,"pages":4,"total":27}}'
  recorded_at: Mon, 19 May 2014 16:27:50 GMT
- request:
    method: get
    uri: http://localhost:3000/api/v3/people.json?api_key=OpSyY94xKOGaJS7XMqSI&per_page=7
    body:
      encoding: US-ASCII
      string: ''
    headers:
      Authorization:
      - Bearer eyJhbGciOiJIUzI1NiJ9.eyJhdWQiOiIwMTBhMTRiZTQwZmY1ZGVhZmI3ZGU3ZTc3M2I4YmZmMCIsImp0aSI6IjIwOGE0ZGIwLWQyMmUtMDEzYi01MjU1LTJjZGU0ODAwMTEyMiJ9.jBsR2ExMJdEuS5GwWZOt0js1XBDp9l13DCxfu_gxst0
      Accept:
      - application/json
      Accept-Encoding:
      - gzip;q=1.0,deflate;q=0.6,identity;q=0.3
      User-Agent:
      - Ruby
  response:
    status:
      code: 200
      message: OK
    headers:
      Date:
      - Thu, 11 May 2023 21:50:22 GMT
      Connection:
      - close
      X-Ratelimit-Limit:
      - '10'
      X-Ratelimit-Remaining:
      - '3'
      X-Ratelimit-Reset:
      - '1683841823'
      Cache-Control:
      - no-store
      Content-Type:
      - application/json; charset=utf-8
      Vary:
      - Origin
      Etag:
      - W/"b126b34238840a7002d3cbdd90352725"
      X-Request-Id:
      - 0f90b733-ead6-45bf-b80b-f2921a8958f4
      X-Runtime:
      - '0.148800'
      X-Frame-Options:
      - DENY
      X-Content-Type-Options:
      - nosniff
      X-Xss-Protection:
      - 1; mode=block
      X-Download-Options:
      - noopen
      X-Permitted-Cross-Domain-Policies:
      - none
    body:
      encoding: UTF-8
      string: '{"entries":[],"pagination":{"page":1,"page_var":"page","per_page":7,"pages":1,"total":0}}'
  recorded_at: Thu, 11 May 2023 21:50:22 GMT
recorded_with: VCR 6.1.0
