---
http_interactions:
- request:
    method: get
    uri: http://localhost:3000/api/v3/companies.json?api_key=iJHyFkMUBSfjUovt29&per_page=7
    body:
      encoding: US-ASCII
      string: ''
    headers:
      Accept:
      - application/json
      Accept-Encoding:
      - gzip;q=1.0,deflate;q=0.6,identity;q=0.3
      User-Agent:
      - Ruby
  response:
    status:
      code: 200
      message: OK
    headers:
      Date:
      - Sat, 15 Jun 2013 15:22:27 GMT
      Status:
      - 200 OK
      Connection:
      - close
      Content-Length:
      - '3966'
      Cache-Control:
      - private, max-age=0, must-revalidate
      Etag:
      - '"36599053eec77e9e3c73d0325cc13b3c"'
      Content-Type:
      - application/json; charset=utf-8
      Set-Cookie:
      - _session_id=d1b7d5ea6a26e6761d53e3ed7dd49c2c; path=/; HttpOnly
      - is_legacy_user=; domain=pipelinecrm.com; path=/; expires=Thu, 01-Jan-1970
        00:00:00 GMT
      X-Runtime:
      - '241'
    body:
      encoding: US-ASCII
      string: '{"pagination":{"per_page":7,"total":108,"pages":16,"page_var":"page","page":1},"entries":[{"phone1_desc":null,"updated_at":"2013/05/31
        13:09:39 -0400","total_pipeline":0,"postal_code":null,"description":null,"image_thumb_url":"/images/thumb/missing_company.png","phone2_desc":null,"email":null,"country":null,"possible_notify_user_ids":[],"won_deals_total":0,"name":"Bartell-Blanda","phone3_desc":null,"id":22,"city":null,"created_at":"2013/05/31
        13:09:38 -0400","phone4":null,"phone3":null,"phone2":null,"phone1":null,"custom_fields":{},"phone4_desc":null,"import_id":null,"address_2":null,"address_1":null,"web":null,"state":null,"fax":null},{"phone1_desc":null,"updated_at":"2013/05/31
        13:10:22 -0400","total_pipeline":0,"postal_code":null,"description":null,"image_thumb_url":"/images/thumb/missing_company.png","phone2_desc":null,"email":null,"country":null,"possible_notify_user_ids":[],"won_deals_total":0,"name":"Barton
        LLC","phone3_desc":null,"id":103,"city":null,"created_at":"2013/05/31 13:10:21
        -0400","phone4":null,"phone3":null,"phone2":null,"phone1":null,"custom_fields":{},"phone4_desc":null,"import_id":null,"address_2":null,"address_1":null,"web":null,"state":null,"fax":null},{"phone1_desc":null,"updated_at":"2013/05/31
        13:09:52 -0400","total_pipeline":0,"postal_code":null,"description":null,"image_thumb_url":"/images/thumb/missing_company.png","phone2_desc":null,"email":null,"country":null,"possible_notify_user_ids":[],"won_deals_total":0,"name":"Berge-Gleichner","phone3_desc":null,"id":47,"city":null,"created_at":"2013/05/31
        13:09:51 -0400","phone4":null,"phone3":null,"phone2":null,"phone1":null,"custom_fields":{},"phone4_desc":null,"import_id":null,"address_2":null,"address_1":null,"web":null,"state":null,"fax":null},{"phone1_desc":null,"updated_at":"2013/05/31
        13:10:20 -0400","total_pipeline":0,"postal_code":null,"description":null,"image_thumb_url":"/images/thumb/missing_company.png","phone2_desc":null,"email":null,"country":null,"possible_notify_user_ids":[],"won_deals_total":0,"name":"Bogan-Prosacco","phone3_desc":null,"id":100,"city":null,"created_at":"2013/05/31
        13:10:20 -0400","phone4":null,"phone3":null,"phone2":null,"phone1":null,"custom_fields":{},"phone4_desc":null,"import_id":null,"address_2":null,"address_1":null,"web":null,"state":null,"fax":null},{"phone1_desc":null,"updated_at":"2013/05/31
        13:10:24 -0400","total_pipeline":0,"postal_code":null,"description":null,"image_thumb_url":"/images/thumb/missing_company.png","phone2_desc":null,"email":null,"country":null,"possible_notify_user_ids":[],"won_deals_total":0,"name":"Corkery
        Inc","phone3_desc":null,"id":105,"city":null,"created_at":"2013/05/31 13:10:23
        -0400","phone4":null,"phone3":null,"phone2":null,"phone1":null,"custom_fields":{},"phone4_desc":null,"import_id":null,"address_2":null,"address_1":null,"web":null,"state":null,"fax":null},{"phone1_desc":null,"updated_at":"2013/05/31
        13:09:58 -0400","total_pipeline":0,"postal_code":null,"description":null,"image_thumb_url":"/images/thumb/missing_company.png","phone2_desc":null,"email":null,"country":null,"possible_notify_user_ids":[],"won_deals_total":0,"name":"Crona-Rowe","phone3_desc":null,"id":60,"city":null,"created_at":"2013/05/31
        13:09:58 -0400","phone4":null,"phone3":null,"phone2":null,"phone1":null,"custom_fields":{},"phone4_desc":null,"import_id":null,"address_2":null,"address_1":null,"web":null,"state":null,"fax":null},{"phone1_desc":null,"updated_at":"2013/05/31
        13:10:14 -0400","total_pipeline":0,"postal_code":null,"description":null,"image_thumb_url":"/images/thumb/missing_company.png","phone2_desc":null,"email":null,"country":null,"possible_notify_user_ids":[],"won_deals_total":0,"name":"Cummerata
        and Sons","phone3_desc":null,"id":89,"city":null,"created_at":"2013/05/31
        13:10:13 -0400","phone4":null,"phone3":null,"phone2":null,"phone1":null,"custom_fields":{},"phone4_desc":null,"import_id":null,"address_2":null,"address_1":null,"web":null,"state":null,"fax":null}]}'
  recorded_at: Sat, 15 Jun 2013 15:22:27 GMT
- request:
    method: get
    uri: http://localhost:3000/api/v3/companies.json?api_key=OpSyY94xKOGaJS7XMqSI&per_page=7
    body:
      encoding: US-ASCII
      string: ''
    headers:
      Authorization:
      - Bearer eyJhbGciOiJIUzI1NiJ9.eyJhdWQiOiIwMTBhMTRiZTQwZmY1ZGVhZmI3ZGU3ZTc3M2I4YmZmMCIsImp0aSI6IjIwOGE0ZGIwLWQyMmUtMDEzYi01MjU1LTJjZGU0ODAwMTEyMiJ9.jBsR2ExMJdEuS5GwWZOt0js1XBDp9l13DCxfu_gxst0
      Accept:
      - application/json
      Accept-Encoding:
      - gzip;q=1.0,deflate;q=0.6,identity;q=0.3
      User-Agent:
      - Ruby
  response:
    status:
      code: 200
      message: OK
    headers:
      Date:
      - Thu, 11 May 2023 21:50:18 GMT
      Connection:
      - close
      X-Ratelimit-Limit:
      - '10'
      X-Ratelimit-Remaining:
      - '7'
      X-Ratelimit-Reset:
      - '1683841819'
      Cache-Control:
      - no-store
      Content-Type:
      - application/json; charset=utf-8
      Vary:
      - Origin
      Etag:
      - W/"b126b34238840a7002d3cbdd90352725"
      X-Request-Id:
      - efec4a32-7f1e-4d62-bb04-9b3d1ec8a30f
      X-Runtime:
      - '0.209508'
      X-Frame-Options:
      - DENY
      X-Content-Type-Options:
      - nosniff
      X-Xss-Protection:
      - 1; mode=block
      X-Download-Options:
      - noopen
      X-Permitted-Cross-Domain-Policies:
      - none
    body:
      encoding: UTF-8
      string: '{"entries":[],"pagination":{"page":1,"page_var":"page","per_page":7,"pages":1,"total":0}}'
  recorded_at: Thu, 11 May 2023 21:50:18 GMT
recorded_with: VCR 6.1.0
